<?xml version="1.0" encoding="utf-8"?>
<!-- Generator: Adobe Illustrator 26.0.3, SVG Export Plug-In . SVG Version: 6.00 Build 0)  -->
<svg version="1.1" id="Layer_1" xmlns="http://www.w3.org/2000/svg" xmlns:xlink="http://www.w3.org/1999/xlink" x="0px" y="0px"
	 viewBox="0 0 75.5 14.4" style="enable-background:new 0 0 75.5 14.4;" xml:space="preserve">
<style type="text/css">
	.st0{fill:#FFFFFF;}
	.st1{fill:#EF6E47;}
	.st2{fill:#3F64DD;}
	.st3{fill:#0D0F4A;}
</style>
<g>
	<g>
		<g>
			<path class="st3" d="M58.3,3.6c-0.1,0-0.2,0.1-0.2,0.2v6.9l-2.7-6.9c0-0.1-0.1-0.1-0.2-0.1h-2.1C53,3.6,53,3.7,53,3.8v6.8
				c0,0.1,0.1,0.2,0.2,0.2h0.8c0.1,0,0.2-0.1,0.2-0.2V3.8l2.6,6.9c0,0.1,0.1,0.1,0.2,0.1h2.2c0.1,0,0.2-0.1,0.2-0.2V3.8
				c0-0.1-0.1-0.2-0.2-0.2H58.3z"/>
		</g>
	</g>
	<g>
		<g>
			<path class="st3" d="M61.9,3.6h-0.8c-0.1,0-0.2,0.1-0.2,0.2v6.8c0,0.1,0.1,0.2,0.2,0.2h0.8c0.1,0,0.2-0.1,0.2-0.2V3.8
				C62.1,3.7,62,3.6,61.9,3.6z"/>
		</g>
	</g>
	<g>
		<g>
			<path class="st3" d="M68.8,5.9V3.8c0-0.1-0.1-0.2-0.2-0.2h-4.7c-0.1,0-0.2,0.1-0.2,0.2v0.8c0,0.1,0.1,0.2,0.2,0.2h4.5l-4.7,3.5
				c0,0-0.1,0.1-0.1,0.1v2.2c0,0.1,0.1,0.2,0.2,0.2h4.7c0.1,0,0.2-0.1,0.2-0.2V9.8c0-0.1-0.1-0.2-0.2-0.2H64l4.7-3.5
				C68.8,6,68.8,6,68.8,5.9z"/>
		</g>
	</g>
	<g>
		<g>
			<path class="st3" d="M75.5,4.6V3.8c0-0.1-0.1-0.2-0.2-0.2h-4.7c-0.1,0-0.2,0.1-0.2,0.2v6.8c0,0.1,0.1,0.2,0.2,0.2h4.7
				c0.1,0,0.2-0.1,0.2-0.2V9.8c0-0.1-0.1-0.2-0.2-0.2h-3.7V7.8h3.4c0.1,0,0.2-0.1,0.2-0.2V6.8c0-0.1-0.1-0.2-0.2-0.2h-3.4V4.8h3.7
				C75.4,4.8,75.5,4.7,75.5,4.6z"/>
		</g>
	</g>
	<g>
		<g>
			<path class="st3" d="M32.7,10.6l-2.1-6.8c0-0.1-0.1-0.1-0.2-0.1h-2.1c-0.1,0-0.1,0-0.2,0.1l-2.3,6.8c0,0.1,0,0.1,0,0.2
				c0,0,0.1,0.1,0.1,0.1H27c0.1,0,0.1,0,0.2-0.1l0.5-1.4h3.5l0.4,1.3c0,0.1,0.1,0.1,0.2,0.1h0.9c0.1,0,0.1,0,0.1-0.1
				C32.7,10.7,32.7,10.6,32.7,10.6z M28,8.1l1.4-4.3l1.3,4.3H28z"/>
		</g>
	</g>
	<g>
		<g>
			<path class="st3" d="M35.1,9.6V3.8c0-0.1-0.1-0.2-0.2-0.2h-0.8c-0.1,0-0.2,0.1-0.2,0.2v6.8c0,0.1,0.1,0.2,0.2,0.2h4.6
				c0.1,0,0.2-0.1,0.2-0.2V9.8c0-0.1-0.1-0.2-0.2-0.2H35.1z"/>
		</g>
	</g>
	<g>
		<g>
			<path class="st3" d="M45.2,3.7c0,0-0.1-0.1-0.1-0.1h-0.9c-0.1,0-0.2,0.1-0.2,0.1L42,10.6l-2.3-6.8c0-0.1-0.1-0.1-0.2-0.1h-0.9
				c-0.1,0-0.1,0-0.1,0.1c0,0,0,0.1,0,0.2l2.3,6.8c0,0.1,0.1,0.1,0.2,0.1H43c0.1,0,0.2-0.1,0.2-0.1l2.1-6.8
				C45.3,3.8,45.3,3.7,45.2,3.7z"/>
		</g>
	</g>
	<g>
		<g>
			<path class="st3" d="M51.7,10.6l-2.1-6.8c0-0.1-0.1-0.1-0.2-0.1h-2.1c-0.1,0-0.1,0-0.2,0.1L45,10.6c0,0.1,0,0.1,0,0.2
				c0,0,0.1,0.1,0.1,0.1H46c0.1,0,0.1,0,0.2-0.1l0.4-1.4h3.5l0.4,1.3c0,0.1,0.1,0.1,0.2,0.1h0.9c0.1,0,0.1,0,0.1-0.1
				C51.8,10.7,51.8,10.6,51.7,10.6z M47,8.1l1.4-4.3l1.3,4.3H47z"/>
		</g>
	</g>
	<g>
		<g>
			<path class="st3" d="M25.4,7.2c0,0.3,0,0.6-0.1,0.9c-0.4,1.7-1.8,2.8-3.5,2.8c-2.1,0-3.6-1.6-3.6-3.7c0-0.5,0.1-0.9,0.2-1.3
				c0.4-1.2,1.3-2.1,2.6-2.3c0.3-0.1,0.5-0.1,0.8-0.1c1.4,0,2.5,0.6,3.1,1.7c0.1,0.1,0,0.3-0.2,0.3h-0.9c-0.1,0-0.1,0-0.2-0.1
				C23.5,5.2,23.3,5.1,23,5c-0.4-0.2-0.8-0.3-1.2-0.3c-0.3,0-0.6,0-0.8,0.1c-0.6,0.2-1,0.5-1.3,1.1c-0.2,0.4-0.3,0.8-0.3,1.4
				c0,1.5,0.9,2.5,2.4,2.5c1.1,0,2-0.6,2.3-1.6l0-0.1h-2c-0.1,0-0.2-0.1-0.2-0.2V7.1c0-0.1,0.1-0.2,0.2-0.2h3.3
				C25.4,7,25.4,7.1,25.4,7.2z"/>
		</g>
	</g>
	<g>
		<g>
			<g>
				<path class="st1" d="M14.5,7.2c0,3.6-2.5,6.6-6,7.1c-0.2,0-0.3,0-0.5,0.1c-0.1,0-0.2-0.1-0.2-0.2v-1.9c0-0.1,0.1-0.2,0.2-0.2
					c0.2,0,0.4-0.1,0.6-0.1c0.2-0.1,0.5-0.1,0.7-0.2c0.6-0.3,1.1-0.6,1.6-1.1c0.5-0.5,0.8-1,1.1-1.6c0.3-0.6,0.4-1.3,0.4-1.9
					s-0.1-1.3-0.4-1.9c-0.2-0.6-0.6-1.1-1.1-1.6c-0.5-0.5-1-0.8-1.6-1.1C8.9,2.5,8.7,2.5,8.4,2.4l-0.1,0v0.9l0,0
					c1.7,0.5,2.9,2.1,2.9,3.9c0,1.8-1.1,3.3-2.9,3.9c-0.2,0-0.3,0.1-0.5,0.1c-0.1,0-0.2-0.1-0.2-0.2v-0.3c0-0.1,0.1-0.2,0.2-0.2
					c0.2,0,0.4-0.1,0.6-0.2c0.8-0.3,1.5-1,1.9-1.9c0.5-1.3,0.2-2.7-0.7-3.7C9.3,4.5,8.9,4.2,8.4,4.1C8.3,4,8.1,3.9,7.9,3.9
					c-0.1,0-0.2-0.1-0.2-0.2V1.8c0-0.1,0.1-0.2,0.2-0.2c0.2,0,0.3,0,0.5,0.1c2.6,0.6,4.5,2.9,4.5,5.5c0,2.6-1.9,5-4.5,5.5l0,0v0.9
					l0.1,0c0.5-0.1,0.9-0.2,1.3-0.4c0.8-0.3,1.5-0.8,2.1-1.4c0.6-0.6,1.1-1.3,1.4-2.1c0.3-0.8,0.5-1.7,0.5-2.5
					c0-0.9-0.2-1.7-0.5-2.5c-0.3-0.8-0.8-1.5-1.4-2.1C11.3,2,10.6,1.5,9.8,1.2C9.3,1,8.9,0.8,8.4,0.8c-0.2,0-0.4-0.1-0.6-0.1
					c-0.1,0-0.2-0.1-0.2-0.2V0.2C7.7,0.1,7.8,0,7.9,0c0.2,0,0.3,0,0.5,0.1C11.9,0.6,14.5,3.6,14.5,7.2z"/>
			</g>
		</g>
		<g>
			<g>
				<path class="st3" d="M2.7,5.3C2.4,5.9,2.3,6.5,2.3,7.2s0.1,1.3,0.4,1.9c0.3,0.6,0.6,1.1,1.1,1.6c0.5,0.5,1,0.8,1.6,1.1
					C5.5,11.9,5.8,11.9,6,12l0.1,0v-0.9l0,0C4.3,10.5,3.2,9,3.2,7.2c0-1.8,1.2-3.3,2.9-3.9c0.2,0,0.3-0.1,0.5-0.1
					c0.1,0,0.2,0.1,0.2,0.2v0.3c0,0.1-0.1,0.2-0.2,0.2C6.4,3.9,6.2,4,6,4.1c-0.8,0.3-1.5,1-1.9,1.9C3.6,7.2,3.9,8.6,4.9,9.6
					c0.3,0.3,0.7,0.6,1.2,0.8c0.2,0.1,0.4,0.1,0.6,0.2c0.1,0,0.2,0.1,0.2,0.2v1.9c0,0.1-0.1,0.2-0.2,0.2c-0.2,0-0.3,0-0.5-0.1
					c-2.6-0.6-4.5-2.9-4.5-5.5c0-2.6,1.9-5,4.5-5.5l0,0V0.8L6,0.8C5.6,0.8,5.1,1,4.7,1.2C3.9,1.5,3.2,2,2.6,2.6
					C2,3.2,1.5,3.9,1.2,4.7C0.9,5.5,0.7,6.3,0.7,7.2c0,0.9,0.2,1.7,0.5,2.5c0.3,0.8,0.8,1.5,1.4,2.1c0.6,0.6,1.3,1.1,2.1,1.4
					c0.4,0.2,0.9,0.3,1.3,0.4c0.2,0,0.4,0.1,0.6,0.1c0.1,0,0.2,0.1,0.2,0.2v0.3c0,0.1-0.1,0.2-0.2,0.2c-0.2,0-0.3,0-0.5-0.1
					c-3.5-0.6-6-3.6-6-7.1c0-3.6,2.5-6.6,6-7.1C6.2,0,6.4,0,6.6,0c0.1,0,0.2,0.1,0.2,0.2v1.9c0,0.1-0.1,0.2-0.2,0.2
					C6.4,2.3,6.2,2.3,6,2.4C5.8,2.5,5.5,2.5,5.3,2.6C4.7,2.9,4.2,3.2,3.7,3.7S2.9,4.7,2.7,5.3z"/>
			</g>
		</g>
	</g>
</g>
</svg>
